﻿0	001	日本語
1	FRM00007	スケジュール実行結果
2	FRM00007	TXTNAME1	実行日時
2	FRM00007	BTNNAME1	CSV
2	FRM00007	BTNNAME2	EXCEL
2	FRM00007	PTDATACNT	全{2}件中 {0}件から{1}件を表示
2	FRM00007	PTPAGE	ページ
2	FRM00007	PTNODATA	表示するデータがありません。