﻿0	001	日本語
1	FRM00008	ユーザー
2	FRM00008	TXTID	ID
2	FRM00008	TXTNAME	名前
2	FRM00008	TXTKENGEN	権限
2	FRM00008	TXTHDOWN	標準ダウロード先
2	FRM00008	TXTGENERAL	一般ユーザー（参照用）
2	FRM00008	TXTADMIN	管理者
2	FRM00008	TXTAUTGRP	管理者（グループ）
2	FRM00008	TXTAUTCRT	一般ユーザー
2	FRM00008	TXTOTHER	その他
2	FRM00008	BTNEDIT	編集
2	FRM00008	BTNDEL	削除
2	FRM00008	BTNQRY	クエリー
2	FRM00008	BTNADD	追加
2	FRM00008	BTNSEARCH	検索
2	FRM00008	PTDATACNT	全{2}件中 {0}件から{1}件を表示
2	FRM00008	PTPAGE	ページ
2	FRM00008	PTNODATA	表示するデータがありません。
2	FRM00008	TXTADUSER	ActiveDirectoryユーザー