﻿0	001	日本語
1	FRM00062	メールアドレス設定
2	FRM00062	TXTNAME1	メールアドレス
2	FRM00062	TXTNAME2	メモ
2	FRM00062	BTNTFRONT	戻る
2	FRM00062	BTNTADD	追加
2	FRM00062	BTNTSEARCH	検索
2	FRM00062	BTNTXTNAME1	編集
2	FRM00062	BTNTXTNAME2	削除
2	FRM00062	PTDATACNT	全{2}件中 {0}件から{1}件を表示
2	FRM00062	PTPAGE	ページ
2	FRM00062	PTNODATA	表示するデータがありません。