﻿0	001	日本語
1	FRM00048	スケジュール
2	FRM00048	TXTID	定義名
2	FRM00048	TXTD1TEXTP	テーブル名（ピボット）
2	FRM00048	TXTD1TEXTNP	テーブル名
2	FRM00048	TXTD1TEXT	テーブル名（ピボット）
2	FRM00048	TXTGQNAME	クエリーグループ
2	FRM00048	BTNTFRONT	登録スケジュール一覧
2	FRM00048	BTNTSEARCH	検索
2	FRM00048	BTNNAME1	スケジュール
2	FRM00048	BTNNAME2	配信設定
2	FRM00048	BTNNAME3	その他設定
2	FRM00048	BTNNAME4	履歴
2	FRM00048	PTDATACNT	全{2}件中 {0}件から{1}件を表示
2	FRM00048	PTPAGE	ページ
2	FRM00048	PTNODATA	表示するデータがありません。