﻿0	001	日本語
1	FRM00139	グループ
2	FRM00139	TXTAUTH	権限
2	FRM00139	TXTGPID	グループID
2	FRM00139	TXTGPNAME	グループ名
2	FRM00139	BTNBACK	戻る
2	FRM00139	BTNALLFUN	一括処理
2	FRM00139	BTNSAVE	保存
2	FRM00139	PTDATACNT	全{2}件中 {0}件から{1}件を表示
2	FRM00139	PTPAGE	ページ
2	FRM00139	PTNODATA	表示するデータがありません。