﻿0	001	日本語
1	FRM00040	検索補助設定
2	FRM00040	LBLLIB	候補ライブラリー
2	FRM00040	LBLFILE	候補ファイル
2	FRM00040	LBLMBR	候補メンバー
2	FRM00040	LBLFIE	候補フィールド 
2	FRM00040	CHKSORT	フィールドソート
2	FRM00040	CHKGRU	フィールドをグルーピング
2	FRM00040	CHKNAME	フィールドを名称で表示
2	FRM00040	LBLFIEN	名称表示フィールド名
2	FRM00040	CHKASORT	名称フィールドソート
2	FRM00040	BTNSAVE	保存
2	FRM00040	BTNDEL	削除
2	FRM00040	BTNCLEAR	クリア
2	FRM00040	BTNCANCEL	キャンセル
