﻿0	001	日本語
1	FRM00023	クエリー作成
2	FRM00023	LBLTITLE	プレビュー
2	FRM00023	D1NAME	定義名
2	FRM00023	BTNSELCOND	戻る（選択条件の入力）
2	FRM00023	BTNSAVE	保存
2	FRM00023	PTDATACNT	全{2}件中 {0}件から{1}件を表示
2	FRM00023	PTPAGE	ページ
2	FRM00023	PTNODATA	表示するデータがありません。