﻿0	001	日本語
1	FRM00044	制御レベル
2	FRM00044	CBOLEV1	レベル
2	FRM00044	CBOLEV2	レベル
2	FRM00044	CBOLEV3	レベル
2	FRM00044	CBOLEV4	レベル
2	FRM00044	CBOLEV5	レベル
2	FRM00044	CBOLEV6	レベル
2	FRM00044	CBOTOTAL	集計
2	FRM00044	CHKSUM	合計
2	FRM00044	CHKBAL	平均
2	FRM00044	CHKLEAST	最小
2	FRM00044	CHKMAX	最大
2	FRM00044	CHKCOUNT	カウント
2	FRM00044	BTNADD	追加
2	FRM00044	BTNSAVE	保存
2	FRM00044	BTNDEL	削除
2	FRM00044	BTNCLEAR	クリア
2	FRM00044	BTNCANCEL	キャンセル
2	FRM00044	CHKSUMF 	制御の合計行のみ表示する