﻿0	001	日本語
1	FRM00036	ダウンロード権限
2	FRM00036	TXTID	ID
2	FRM00036	TXTNAME	名前
2	FRM00036	TXTCSV	CSV
2	FRM00036	TXTEXCEL	EXCEL
2	FRM00036	BTNBACK	戻る
2	FRM00036	BTNALLFUN	一括処理
2	FRM00036	MITMSELCSV	CSV全てを選択
2	FRM00036	MITMDELCSV	CSV全てを選択解除
2	FRM00036	MITMSELXLS	EXCEL全てを選択
2	FRM00036	MITMDELXLS	EXCEL全てを選択解除
2	FRM00036	BTNSAVE	保存
2	FRM00036	PTDATACNT	全{2}件中 {0}件から{1}件を表示
2	FRM00036	PTPAGE	ページ
2	FRM00036	PTNODATA	表示するデータがありません。