﻿0	001	日本語
1	FRM00136	出力ファイルの設定
2	FRM00136	CHKNAME1	実行時にユーザーが出力先を設定
2	FRM00136	TXTNAME1	ライブラリー
2	FRM00136	TXTNAME2	ファイル
2	FRM00136	LBLNAME1	初期値
2	FRM00136	LBLNAME2	初期値
2	FRM00136	RGPNAME1	ファイルの上書き
2	FRM00136	RDONAME1	しない
2	FRM00136	RDONAME2	する
2	FRM00136	RDONAME3	確認
2	FRM00136	ITMOTHERLIB	移行先
2	FRM00136	D1OUTA	ファイル出力でレコードの追加
2	FRM00136	BTNSAVE	OK
2	FRM00136	BTNCLEAR	クリア
2	FRM00136	BTNCANCEL	キャンセル
