﻿0	001	日本語
1	FRM00138	クエリーグループ設定
2	FRM00138	TXTAUTH	SEQ
2	FRM00138	TXTGPID	定義名
2	FRM00138	TXTSEARCH	テーブル名
2	FRM00138	BTNBACK	戻る
2	FRM00138	BTNSAVE	保存
2	FRM00138	BTNSEARCH	検索
2	FRM00138	PTDATACNT	全{2}件中 {0}件から{1}件を表示
2	FRM00138	PTPAGE	ページ
2	FRM00138	PTNODATA	表示するデータがありません。