﻿0	001	日本語
1	FRM00054	抽出範囲設定
2	FRM00054	CMBNAME1	項目
2	FRM00054	RGPSELM	抽出方法
2	FRM00054	RDORANGE	値範囲
2	FRM00054	RDOLIST	選択
2	FRM00054	TXTRANGE	値範囲
2	FRM00054	BTNNAME6	条件追加
2	FRM00054	TXTNAME7	選択
2	FRM00054	TXTWABAFR	値範囲
2	FRM00054	TXTWABAFR1	選択
2	FRM00054	TXTWABAFR2	選択
2	FRM00054	BTNSAVE	保存
2	FRM00054	BTNDEL	削除
2	FRM00054	BTNCLR	クリア
2	FRM00054	BTNCANCEL	キャンセル