﻿0	001	日本語
1	FRM00009	ユーザー情報
2	FRM00009	TXTID	ID
2	FRM00009	TXTPASS	パスワード
2	FRM00009	TXTCOMPAS	パスワードの確認入力
2	FRM00009	TXTNAME	名前
2	FRM00009	RGPKENGEN	権限
2	FRM00009	RDOKANRI	管理者
2	FRM00009	RDOAGRP	管理者（グループ）
2	FRM00009	RDOIPPAN	一般ユーザー（参照用）
2	FRM00009	RDOACRT	一般ユーザー
2	FRM00009	RDOSONO	その他
2	FRM00009	COMSONO	その他権限
2	FRM00009	COMLIBL	除外ライブラリー選択
2	FRM00009	COMIPPU	クエリー作成者変更
2	FRM00009	CHKACCLK	アカウントのロック解除する
2	FRM00009	CHKUQFG	作成したクエリーを表示する
2	FRM00009	BMKQFG	お気に入りクエリーを表示する
2	FRM00009	BTNSAVE	保存
2	FRM00009	BTNCLEAR	クリア
2	FRM00009	BTNCANCEL	キャンセル
2	FRM00009	TXTAUSER	ActiveDirectoryユーザー
2	FRM00009	TXTDOMAIN	ActiveDirectoryドメイン
2	FRM00009	UPDQFG	変更フラグ
