﻿0	001	日本語
1	FRM00074	HTML禁止タグ
2	FRM00074	TXTTAG	禁止タグ
2	FRM00074	BTNEDIT	編集
2	FRM00074	BTNDEL	削除  
2	FRM00074	BTNADD	追加
2	FRM00074	BTNSEL	検索
2	FRM00074	PTDATACNT	全{2}件中 {0}件から{1}件を表示
2	FRM00074	PTPAGE	ページ
2	FRM00074	PTNODATA	表示するデータがありません。