﻿0	001	日本語
1	FRM00035	詳細情報設定
2	FRM00035	TXTLIB	ライブラリー
2	FRM00035	TXTFIE	ファイル
2	FRM00035	TXTMBR	メンバー
2	FRM00035	BTNNAME1	フィールド
2	FRM00035	CNMNAME1	検索キー
2	FRM00035	CNMNAME2	表示項目
2	FRM00035	CNMNAME3	フィールド
2	FRM00035	CNMNAME4	フィールド名
2	FRM00035	BTNSAVE	保存
2	FRM00035	BTNDEL	削除
2	FRM00035	BTNCLR	クリア
2	FRM00035	BTNCANCEL	キャンセル