﻿0	001	日本語
1	FRM00131	メニュー設定
2	FRM00131	LBLUSRQRY	ユーザが作成したクエリー
2	FRM00131	RDONOTUSRQY	表示しない
2	FRM00131	RDOUSRQY	表示する
2	FRM00131	LBLUSRBMK	お気に入りクエリー
2	FRM00131	RDONOTUSRBMK	表示しない
2	FRM00131	RDOUSRBMK	表示する
2	FRM00131	BTNSAVE	保存
2	FRM00131	BTNCLEAR	クリア
2	FRM00131	BTNCANCEL	キャンセル
