﻿0	001	日本語
1	FRM00098	サブフォルダ                           
2	FRM00098	TXTAUTH	権限
2	FRM00098	TXTGPID	フォルダID
2	FRM00098	TXTGPNAME	フォルダ名
2	FRM00098	BTNBACK	戻る
2	FRM00098	BTNSAVE	保存
2	FRM00098	PTDATACNT	全{2}件中 {0}件から{1}件を表示
2	FRM00098	PTPAGE	ページ
2	FRM00098	PTNODATA	表示するデータがありません。