0	NAVNODADA	1			0
1	NAVSCHRES	0			0
2	NAVADMIN	0			0
3	FRM00008	1	#master/userMaster	master	1
4	FRM00012	1	#master/groupMaster	master	2
5	FRM00017	1	#master/queryMaster	master	3
6	FRM00048	1	#master/scheduleMaster	master	5
7	FRM00059	1	#master/mailgroupMaster	master	6
8	FRM00064	1	#master/clMaster	master	7
9	FRM00068	1	#master/mailMaster	master	8
10	FRM00069	1	#master/companyMaster	master	9
11	FRM00070	1	#master/utilTimeMaster	master	10
12	FRM00071	1	#master/logMaster	master	11
13	FRM00074	1	#master/htmlTagKinshiMaster	master	12
14	FRM00077	1	#master/kukakuMaster	master	13
15	FRM00080	1	#master/languageMaster	master	14
16	FRM00083	1	#master/systemInfoMaster	master	17
17	FRM00084	1	#master/licenseInfoMaster	master	18
18	FRM00101	1	#master/userControlMaster	master	15
19	FRM00122	1	#master/libraryMaster	master	16
20	NAVDBOARD	1	#bookmark		0
21	NAVDASHBOARD	0			0
22	NAVNEWDASHBOARD	1			0
23	FRM00126	1	#master/exportMaster	master	19
24	FRM00127	1	#master/importMaster	master	20
25	NAVUSRQRY	0			0
26	FRM00137	1	#master/queryGroupMaster	master	4
27	NAVBMKQRY	0			0
31	FRM00159	1	#master/zipuploadMaster	master	31