[03-Aug-2018 18:53:27 Asia/Tokyo] ファイルデータ:Array
(
    [1] => Array
        (
            [0] => 0
            [1] => NAVNODADA
            [2] => 1
            [3] => 
            [4] => 
            [5] => 0
        )

    [2] => Array
        (
            [0] => 1
            [1] => NAVSCHRES
            [2] => 0
            [3] => 
            [4] => 
            [5] => 0
        )

    [3] => Array
        (
            [0] => 2
            [1] => NAVADMIN
            [2] => 0
            [3] => 
            [4] => 
            [5] => 0
        )

    [4] => Array
        (
            [0] => 3
            [1] => FRM00008
            [2] => 1
            [3] => #master/userMaster
            [4] => master
            [5] => 1
        )

    [5] => Array
        (
            [0] => 4
            [1] => FRM00012
            [2] => 1
            [3] => #master/groupMaster
            [4] => master
            [5] => 2
        )

    [6] => Array
        (
            [0] => 5
            [1] => FRM00017
            [2] => 1
            [3] => #master/queryMaster
            [4] => master
            [5] => 3
        )

    [7] => Array
        (
            [0] => 6
            [1] => FRM00048
            [2] => 1
            [3] => #master/scheduleMaster
            [4] => master
            [5] => 5
        )

    [8] => Array
        (
            [0] => 7
            [1] => FRM00059
            [2] => 1
            [3] => #master/mailgroupMaster
            [4] => master
            [5] => 6
        )

    [9] => Array
        (
            [0] => 8
            [1] => FRM00064
            [2] => 1
            [3] => #master/clMaster
            [4] => master
            [5] => 7
        )

    [10] => Array
        (
            [0] => 9
            [1] => FRM00068
            [2] => 1
            [3] => #master/mailMaster
            [4] => master
            [5] => 8
        )

    [11] => Array
        (
            [0] => 10
            [1] => FRM00069
            [2] => 1
            [3] => #master/companyMaster
            [4] => master
            [5] => 9
        )

    [12] => Array
        (
            [0] => 11
            [1] => FRM00070
            [2] => 1
            [3] => #master/utilTimeMaster
            [4] => master
            [5] => 10
        )

    [13] => Array
        (
            [0] => 12
            [1] => FRM00071
            [2] => 1
            [3] => #master/logMaster
            [4] => master
            [5] => 11
        )

    [14] => Array
        (
            [0] => 13
            [1] => FRM00074
            [2] => 1
            [3] => #master/htmlTagKinshiMaster
            [4] => master
            [5] => 12
        )

    [15] => Array
        (
            [0] => 14
            [1] => FRM00077
            [2] => 1
            [3] => #master/kukakuMaster
            [4] => master
            [5] => 13
        )

    [16] => Array
        (
            [0] => 15
            [1] => FRM00080
            [2] => 1
            [3] => #master/languageMaster
            [4] => master
            [5] => 14
        )

    [17] => Array
        (
            [0] => 16
            [1] => FRM00083
            [2] => 1
            [3] => #master/systemInfoMaster
            [4] => master
            [5] => 17
        )

    [18] => Array
        (
            [0] => 17
            [1] => FRM00084
            [2] => 1
            [3] => #master/licenseInfoMaster
            [4] => master
            [5] => 18
        )

    [19] => Array
        (
            [0] => 18
            [1] => FRM00101
            [2] => 1
            [3] => #master/userControlMaster
            [4] => master
            [5] => 15
        )

    [20] => Array
        (
            [0] => 19
            [1] => FRM00122
            [2] => 1
            [3] => #master/libraryMaster
            [4] => master
            [5] => 16
        )

    [21] => Array
        (
            [0] => 20
            [1] => NAVDBOARD
            [2] => 1
            [3] => #bookmark
            [4] => 
            [5] => 0
        )

    [22] => Array
        (
            [0] => 21
            [1] => NAVDASHBOARD
            [2] => 0
            [3] => 
            [4] => 
            [5] => 0
        )

    [23] => Array
        (
            [0] => 22
            [1] => NAVNEWDASHBOARD
            [2] => 1
            [3] => 
            [4] => 
            [5] => 0
        )

    [24] => Array
        (
            [0] => 23
            [1] => FRM00126
            [2] => 1
            [3] => #master/exportMaster
            [4] => master
            [5] => 19
        )

    [25] => Array
        (
            [0] => 24
            [1] => FRM00127
            [2] => 1
            [3] => #master/importMaster
            [4] => master
            [5] => 20
        )

    [26] => Array
        (
            [0] => 25
            [1] => NAVUSRQRY
            [2] => 0
            [3] => 
            [4] => 
            [5] => 0
        )

    [27] => Array
        (
            [0] => 26
            [1] => FRM00137
            [2] => 1
            [3] => #master/queryGroupMaster
            [4] => master
            [5] => 4
        )

    [28] => Array
        (
            [0] => 27
            [1] => NAVBMKQRY
            [2] => 0
            [3] => 
            [4] => 
            [5] => 0
        )

    [29] => Array
        (
            [0] => 28
            [1] => FRM00141
            [2] => 1
            [3] => #master/userMasterKLYH
            [4] => master
            [5] => 21
        )

    [30] => Array
        (
            [0] => 29
            [1] => FRM00142
            [2] => 1
            [3] => #master/userMasterEYM
            [4] => master
            [5] => 22
        )

)

[03-Aug-2018 18:53:27 Asia/Tokyo] ナビケション配列=>Array
(
    [1] => Array
        (
            [NAVID] => 0
            [NAVTEXT] => NAVNODADA
            [NAVLEAF] => 1
            [NAVHREF] => 
            [NAVMENU] => 
            [NAVORD] => 0
        )

    [2] => Array
        (
            [NAVID] => 1
            [NAVTEXT] => NAVSCHRES
            [NAVLEAF] => 0
            [NAVHREF] => 
            [NAVMENU] => 
            [NAVORD] => 0
        )

    [3] => Array
        (
            [NAVID] => 2
            [NAVTEXT] => NAVADMIN
            [NAVLEAF] => 0
            [NAVHREF] => 
            [NAVMENU] => 
            [NAVORD] => 0
        )

    [4] => Array
        (
            [NAVID] => 3
            [NAVTEXT] => FRM00008
            [NAVLEAF] => 1
            [NAVHREF] => #master/userMaster
            [NAVMENU] => master
            [NAVORD] => 1
        )

    [5] => Array
        (
            [NAVID] => 4
            [NAVTEXT] => FRM00012
            [NAVLEAF] => 1
            [NAVHREF] => #master/groupMaster
            [NAVMENU] => master
            [NAVORD] => 2
        )

    [6] => Array
        (
            [NAVID] => 5
            [NAVTEXT] => FRM00017
            [NAVLEAF] => 1
            [NAVHREF] => #master/queryMaster
            [NAVMENU] => master
            [NAVORD] => 3
        )

    [7] => Array
        (
            [NAVID] => 6
            [NAVTEXT] => FRM00048
            [NAVLEAF] => 1
            [NAVHREF] => #master/scheduleMaster
            [NAVMENU] => master
            [NAVORD] => 5
        )

    [8] => Array
        (
            [NAVID] => 7
            [NAVTEXT] => FRM00059
            [NAVLEAF] => 1
            [NAVHREF] => #master/mailgroupMaster
            [NAVMENU] => master
            [NAVORD] => 6
        )

    [9] => Array
        (
            [NAVID] => 8
            [NAVTEXT] => FRM00064
            [NAVLEAF] => 1
            [NAVHREF] => #master/clMaster
            [NAVMENU] => master
            [NAVORD] => 7
        )

    [10] => Array
        (
            [NAVID] => 9
            [NAVTEXT] => FRM00068
            [NAVLEAF] => 1
            [NAVHREF] => #master/mailMaster
            [NAVMENU] => master
            [NAVORD] => 8
        )

    [11] => Array
        (
            [NAVID] => 10
            [NAVTEXT] => FRM00069
            [NAVLEAF] => 1
            [NAVHREF] => #master/companyMaster
            [NAVMENU] => master
            [NAVORD] => 9
        )

    [12] => Array
        (
            [NAVID] => 11
            [NAVTEXT] => FRM00070
            [NAVLEAF] => 1
            [NAVHREF] => #master/utilTimeMaster
            [NAVMENU] => master
            [NAVORD] => 10
        )

    [13] => Array
        (
            [NAVID] => 12
            [NAVTEXT] => FRM00071
            [NAVLEAF] => 1
            [NAVHREF] => #master/logMaster
            [NAVMENU] => master
            [NAVORD] => 11
        )

    [14] => Array
        (
            [NAVID] => 13
            [NAVTEXT] => FRM00074
            [NAVLEAF] => 1
            [NAVHREF] => #master/htmlTagKinshiMaster
            [NAVMENU] => master
            [NAVORD] => 12
        )

    [15] => Array
        (
            [NAVID] => 14
            [NAVTEXT] => FRM00077
            [NAVLEAF] => 1
            [NAVHREF] => #master/kukakuMaster
            [NAVMENU] => master
            [NAVORD] => 13
        )

    [16] => Array
        (
            [NAVID] => 15
            [NAVTEXT] => FRM00080
            [NAVLEAF] => 1
            [NAVHREF] => #master/languageMaster
            [NAVMENU] => master
            [NAVORD] => 14
        )

    [17] => Array
        (
            [NAVID] => 16
            [NAVTEXT] => FRM00083
            [NAVLEAF] => 1
            [NAVHREF] => #master/systemInfoMaster
            [NAVMENU] => master
            [NAVORD] => 17
        )

    [18] => Array
        (
            [NAVID] => 17
            [NAVTEXT] => FRM00084
            [NAVLEAF] => 1
            [NAVHREF] => #master/licenseInfoMaster
            [NAVMENU] => master
            [NAVORD] => 18
        )

    [19] => Array
        (
            [NAVID] => 18
            [NAVTEXT] => FRM00101
            [NAVLEAF] => 1
            [NAVHREF] => #master/userControlMaster
            [NAVMENU] => master
            [NAVORD] => 15
        )

    [20] => Array
        (
            [NAVID] => 19
            [NAVTEXT] => FRM00122
            [NAVLEAF] => 1
            [NAVHREF] => #master/libraryMaster
            [NAVMENU] => master
            [NAVORD] => 16
        )

    [21] => Array
        (
            [NAVID] => 20
            [NAVTEXT] => NAVDBOARD
            [NAVLEAF] => 1
            [NAVHREF] => #bookmark
            [NAVMENU] => 
            [NAVORD] => 0
        )

    [22] => Array
        (
            [NAVID] => 21
            [NAVTEXT] => NAVDASHBOARD
            [NAVLEAF] => 0
            [NAVHREF] => 
            [NAVMENU] => 
            [NAVORD] => 0
        )

    [23] => Array
        (
            [NAVID] => 22
            [NAVTEXT] => NAVNEWDASHBOARD
            [NAVLEAF] => 1
            [NAVHREF] => 
            [NAVMENU] => 
            [NAVORD] => 0
        )

    [24] => Array
        (
            [NAVID] => 23
            [NAVTEXT] => FRM00126
            [NAVLEAF] => 1
            [NAVHREF] => #master/exportMaster
            [NAVMENU] => master
            [NAVORD] => 19
        )

    [25] => Array
        (
            [NAVID] => 24
            [NAVTEXT] => FRM00127
            [NAVLEAF] => 1
            [NAVHREF] => #master/importMaster
            [NAVMENU] => master
            [NAVORD] => 20
        )

    [26] => Array
        (
            [NAVID] => 25
            [NAVTEXT] => NAVUSRQRY
            [NAVLEAF] => 0
            [NAVHREF] => 
            [NAVMENU] => 
            [NAVORD] => 0
        )

    [27] => Array
        (
            [NAVID] => 26
            [NAVTEXT] => FRM00137
            [NAVLEAF] => 1
            [NAVHREF] => #master/queryGroupMaster
            [NAVMENU] => master
            [NAVORD] => 4
        )

    [28] => Array
        (
            [NAVID] => 27
            [NAVTEXT] => NAVBMKQRY
            [NAVLEAF] => 0
            [NAVHREF] => 
            [NAVMENU] => 
            [NAVORD] => 0
        )

    [29] => Array
        (
            [NAVID] => 28
            [NAVTEXT] => FRM00141
            [NAVLEAF] => 1
            [NAVHREF] => #master/userMasterKLYH
            [NAVMENU] => master
            [NAVORD] => 21
        )

    [30] => Array
        (
            [NAVID] => 29
            [NAVTEXT] => FRM00142
            [NAVLEAF] => 1
            [NAVHREF] => #master/userMasterEYM
            [NAVMENU] => master
            [NAVORD] => 22
        )

)
\r\n
[03-Aug-2018 18:53:27 Asia/Tokyo] NAVDATA:Array
(
    [0] => Array
        (
            [NAVID] => 0
            [NAVTEXT] => NAVNODADA           
            [NAVLEAF] => 1
            [NAVHREF] =>                                                                                                                                                       
            [NAVMENU] =>                                                   
            [NAVORD] => 0
        )

)

[03-Aug-2018 18:53:27 Asia/Tokyo] NAVDATA:Array
(
    [0] => Array
        (
            [NAVID] => 1
            [NAVTEXT] => NAVSCHRES           
            [NAVLEAF] => 0
            [NAVHREF] =>                                                                                                                                                       
            [NAVMENU] =>                                                   
            [NAVORD] => 0
        )

)

[03-Aug-2018 18:53:27 Asia/Tokyo] NAVDATA:Array
(
    [0] => Array
        (
            [NAVID] => 2
            [NAVTEXT] => NAVADMIN            
            [NAVLEAF] => 0
            [NAVHREF] =>                                                                                                                                                       
            [NAVMENU] =>                                                   
            [NAVORD] => 0
        )

)

[03-Aug-2018 18:53:27 Asia/Tokyo] NAVDATA:Array
(
    [0] => Array
        (
            [NAVID] => 3
            [NAVTEXT] => FRM00008            
            [NAVLEAF] => 1
            [NAVHREF] => #master/userMaster                                                                                                                                    
            [NAVMENU] => master                                            
            [NAVORD] => 1
        )

)

[03-Aug-2018 18:53:27 Asia/Tokyo] NAVDATA:Array
(
    [0] => Array
        (
            [NAVID] => 4
            [NAVTEXT] => FRM00012            
            [NAVLEAF] => 1
            [NAVHREF] => #master/groupMaster                                                                                                                                   
            [NAVMENU] => master                                            
            [NAVORD] => 2
        )

)

[03-Aug-2018 18:53:27 Asia/Tokyo] NAVDATA:Array
(
    [0] => Array
        (
            [NAVID] => 5
            [NAVTEXT] => FRM00017            
            [NAVLEAF] => 1
            [NAVHREF] => #master/queryMaster                                                                                                                                   
            [NAVMENU] => master                                            
            [NAVORD] => 3
        )

)

[03-Aug-2018 18:53:27 Asia/Tokyo] NAVDATA:Array
(
    [0] => Array
        (
            [NAVID] => 6
            [NAVTEXT] => FRM00048            
            [NAVLEAF] => 1
            [NAVHREF] => #master/scheduleMaster                                                                                                                                
            [NAVMENU] => master                                            
            [NAVORD] => 5
        )

)

[03-Aug-2018 18:53:27 Asia/Tokyo] NAVDATA:Array
(
    [0] => Array
        (
            [NAVID] => 7
            [NAVTEXT] => FRM00059            
            [NAVLEAF] => 1
            [NAVHREF] => #master/mailgroupMaster                                                                                                                               
            [NAVMENU] => master                                            
            [NAVORD] => 6
        )

)

[03-Aug-2018 18:53:27 Asia/Tokyo] NAVDATA:Array
(
    [0] => Array
        (
            [NAVID] => 8
            [NAVTEXT] => FRM00064            
            [NAVLEAF] => 1
            [NAVHREF] => #master/clMaster                                                                                                                                      
            [NAVMENU] => master                                            
            [NAVORD] => 7
        )

)

[03-Aug-2018 18:53:27 Asia/Tokyo] NAVDATA:Array
(
    [0] => Array
        (
            [NAVID] => 9
            [NAVTEXT] => FRM00068            
            [NAVLEAF] => 1
            [NAVHREF] => #master/mailMaster                                                                                                                                    
            [NAVMENU] => master                                            
            [NAVORD] => 8
        )

)

[03-Aug-2018 18:53:27 Asia/Tokyo] NAVDATA:Array
(
    [0] => Array
        (
            [NAVID] => 10
            [NAVTEXT] => FRM00069            
            [NAVLEAF] => 1
            [NAVHREF] => #master/companyMaster                                                                                                                                 
            [NAVMENU] => master                                            
            [NAVORD] => 9
        )

)

[03-Aug-2018 18:53:27 Asia/Tokyo] NAVDATA:Array
(
    [0] => Array
        (
            [NAVID] => 11
            [NAVTEXT] => FRM00070            
            [NAVLEAF] => 1
            [NAVHREF] => #master/utilTimeMaster                                                                                                                                
            [NAVMENU] => master                                            
            [NAVORD] => 10
        )

)

[03-Aug-2018 18:53:27 Asia/Tokyo] NAVDATA:Array
(
    [0] => Array
        (
            [NAVID] => 12
            [NAVTEXT] => FRM00071            
            [NAVLEAF] => 1
            [NAVHREF] => #master/logMaster                                                                                                                                     
            [NAVMENU] => master                                            
            [NAVORD] => 11
        )

)

[03-Aug-2018 18:53:27 Asia/Tokyo] NAVDATA:Array
(
    [0] => Array
        (
            [NAVID] => 13
            [NAVTEXT] => FRM00074            
            [NAVLEAF] => 1
            [NAVHREF] => #master/htmlTagKinshiMaster                                                                                                                           
            [NAVMENU] => master                                            
            [NAVORD] => 12
        )

)

[03-Aug-2018 18:53:27 Asia/Tokyo] NAVDATA:Array
(
    [0] => Array
        (
            [NAVID] => 14
            [NAVTEXT] => FRM00077            
            [NAVLEAF] => 1
            [NAVHREF] => #master/kukakuMaster                                                                                                                                  
            [NAVMENU] => master                                            
            [NAVORD] => 13
        )

)

[03-Aug-2018 18:53:27 Asia/Tokyo] NAVDATA:Array
(
    [0] => Array
        (
            [NAVID] => 15
            [NAVTEXT] => FRM00080            
            [NAVLEAF] => 1
            [NAVHREF] => #master/languageMaster                                                                                                                                
            [NAVMENU] => master                                            
            [NAVORD] => 14
        )

)

[03-Aug-2018 18:53:27 Asia/Tokyo] NAVDATA:Array
(
    [0] => Array
        (
            [NAVID] => 16
            [NAVTEXT] => FRM00083            
            [NAVLEAF] => 1
            [NAVHREF] => #master/systemInfoMaster                                                                                                                              
            [NAVMENU] => master                                            
            [NAVORD] => 17
        )

)

[03-Aug-2018 18:53:27 Asia/Tokyo] NAVDATA:Array
(
    [0] => Array
        (
            [NAVID] => 17
            [NAVTEXT] => FRM00084            
            [NAVLEAF] => 1
            [NAVHREF] => #master/licenseInfoMaster                                                                                                                             
            [NAVMENU] => master                                            
            [NAVORD] => 18
        )

)

[03-Aug-2018 18:53:27 Asia/Tokyo] NAVDATA:Array
(
    [0] => Array
        (
            [NAVID] => 18
            [NAVTEXT] => FRM00101            
            [NAVLEAF] => 1
            [NAVHREF] => #master/userControlMaster                                                                                                                             
            [NAVMENU] => master                                            
            [NAVORD] => 15
        )

)

[03-Aug-2018 18:53:27 Asia/Tokyo] NAVDATA:Array
(
    [0] => Array
        (
            [NAVID] => 19
            [NAVTEXT] => FRM00122            
            [NAVLEAF] => 1
            [NAVHREF] => #master/libraryMaster                                                                                                                                 
            [NAVMENU] => master                                            
            [NAVORD] => 16
        )

)

[03-Aug-2018 18:53:27 Asia/Tokyo] NAVDATA:Array
(
    [0] => Array
        (
            [NAVID] => 20
            [NAVTEXT] => NAVDBOARD           
            [NAVLEAF] => 1
            [NAVHREF] => #bookmark                                                                                                                                             
            [NAVMENU] =>                                                   
            [NAVORD] => 0
        )

)

[03-Aug-2018 18:53:27 Asia/Tokyo] NAVDATA:Array
(
    [0] => Array
        (
            [NAVID] => 21
            [NAVTEXT] => NAVDASHBOARD        
            [NAVLEAF] => 0
            [NAVHREF] =>                                                                                                                                                       
            [NAVMENU] =>                                                   
            [NAVORD] => 0
        )

)

[03-Aug-2018 18:53:27 Asia/Tokyo] NAVDATA:Array
(
    [0] => Array
        (
            [NAVID] => 22
            [NAVTEXT] => NAVNEWDASHBOARD     
            [NAVLEAF] => 1
            [NAVHREF] =>                                                                                                                                                       
            [NAVMENU] =>                                                   
            [NAVORD] => 0
        )

)

[03-Aug-2018 18:53:27 Asia/Tokyo] NAVDATA:Array
(
    [0] => Array
        (
            [NAVID] => 23
            [NAVTEXT] => FRM00126            
            [NAVLEAF] => 1
            [NAVHREF] => #master/exportMaster                                                                                                                                  
            [NAVMENU] => master                                            
            [NAVORD] => 19
        )

)

[03-Aug-2018 18:53:27 Asia/Tokyo] NAVDATA:Array
(
    [0] => Array
        (
            [NAVID] => 24
            [NAVTEXT] => FRM00127            
            [NAVLEAF] => 1
            [NAVHREF] => #master/importMaster                                                                                                                                  
            [NAVMENU] => master                                            
            [NAVORD] => 20
        )

)

[03-Aug-2018 18:53:27 Asia/Tokyo] NAVDATA:Array
(
    [0] => Array
        (
            [NAVID] => 25
            [NAVTEXT] => NAVUSRQRY           
            [NAVLEAF] => 0
            [NAVHREF] =>                                                                                                                                                       
            [NAVMENU] =>                                                   
            [NAVORD] => 0
        )

)

[03-Aug-2018 18:53:27 Asia/Tokyo] NAVDATA:Array
(
    [0] => Array
        (
            [NAVID] => 26
            [NAVTEXT] => FRM00137            
            [NAVLEAF] => 1
            [NAVHREF] => #master/queryGroupMaster                                                                                                                              
            [NAVMENU] => master                                            
            [NAVORD] => 4
        )

)

[03-Aug-2018 18:53:27 Asia/Tokyo] NAVDATA:Array
(
    [0] => Array
        (
            [NAVID] => 27
            [NAVTEXT] => NAVBMKQRY           
            [NAVLEAF] => 0
            [NAVHREF] =>                                                                                                                                                       
            [NAVMENU] =>                                                   
            [NAVORD] => 0
        )

)

[03-Aug-2018 18:53:27 Asia/Tokyo] NAVDATA:Array
(
    [0] => Array
        (
            [NAVID] => 28
            [NAVTEXT] => UserMasterKLYH      
            [NAVLEAF] => 1
            [NAVHREF] => #master/userMasterKLYH                                                                                                                                
            [NAVMENU] => master                                            
            [NAVORD] => 21
        )

)

[03-Aug-2018 18:53:27 Asia/Tokyo] NAVDATA:Array
(
)

